\relax 
\providecommand{\transparent@use}[1]{}
\providecommand\hyper@newdestlabel[2]{}
\providecommand\HyperFirstAtBeginDocument{\AtBeginDocument}
\HyperFirstAtBeginDocument{\ifx\hyper@anchor\@undefined
\global\let\oldcontentsline\contentsline
\gdef\contentsline#1#2#3#4{\oldcontentsline{#1}{#2}{#3}}
\global\let\oldnewlabel\newlabel
\gdef\newlabel#1#2{\newlabelxx{#1}#2}
\gdef\newlabelxx#1#2#3#4#5#6{\oldnewlabel{#1}{{#2}{#3}}}
\AtEndDocument{\ifx\hyper@anchor\@undefined
\let\contentsline\oldcontentsline
\let\newlabel\oldnewlabel
\fi}
\fi}
\global\let\hyper@last\relax 
\gdef\HyperFirstAtBeginDocument#1{#1}
\providecommand\HyField@AuxAddToFields[1]{}
\providecommand\HyField@AuxAddToCoFields[2]{}
\@writefile{toc}{\contentsline {section}{\numberline {1}Introduction and scope}{2}{section.1}\protected@file@percent }
\@writefile{toc}{\contentsline {section}{\numberline {2}Building codes}{2}{section.2}\protected@file@percent }
\@writefile{toc}{\contentsline {section}{\numberline {3}Loading criteria}{3}{section.3}\protected@file@percent }
\@writefile{toc}{\contentsline {subsection}{\numberline {3.1}Gravity loading}{3}{subsection.3.1}\protected@file@percent }
\@writefile{lot}{\contentsline {table}{\numberline {1}{\ignorespaces \textbf  {Gravity Loads}}}{3}{table.1}\protected@file@percent }
\newlabel{grav_load}{{1}{3}{\textbf {Gravity Loads}}{table.1}{}}
\@writefile{toc}{\contentsline {subsection}{\numberline {3.2}Wind design criteria}{3}{subsection.3.2}\protected@file@percent }
\@writefile{lot}{\contentsline {table}{\numberline {2}{\ignorespaces \textbf  {Wind Design Criteria}}}{3}{table.2}\protected@file@percent }
\newlabel{wind_load}{{2}{3}{\textbf {Wind Design Criteria}}{table.2}{}}
\@writefile{toc}{\contentsline {subsection}{\numberline {3.3}Snow loading}{4}{subsection.3.3}\protected@file@percent }
\@writefile{lot}{\contentsline {table}{\numberline {3}{\ignorespaces \textbf  {Snow Design Criteria}}}{4}{table.3}\protected@file@percent }
\newlabel{snow_load}{{3}{4}{\textbf {Snow Design Criteria}}{table.3}{}}
\@writefile{toc}{\contentsline {section}{\numberline {4}Materials}{4}{section.4}\protected@file@percent }
\@writefile{toc}{\contentsline {subsection}{\numberline {4.1}Structural steel}{4}{subsection.4.1}\protected@file@percent }
\@writefile{toc}{\contentsline {subsection}{\numberline {4.2}Wood structural panels}{4}{subsection.4.2}\protected@file@percent }
\@writefile{toc}{\contentsline {subsubsection}{\numberline {4.2.1}Laminated veneer lumber (LVL)}{4}{subsubsection.4.2.1}\protected@file@percent }
\@writefile{toc}{\contentsline {section}{\numberline {5}Design and analysis software}{4}{section.5}\protected@file@percent }
\@writefile{toc}{\contentsline {section}{\numberline {6}Load combinations}{5}{section.6}\protected@file@percent }
\@writefile{lot}{\contentsline {table}{\numberline {4}{\ignorespaces \textbf  {Combinations Ultimate Limit States}}}{5}{table.4}\protected@file@percent }
\newlabel{ULS}{{4}{5}{\textbf {Combinations Ultimate Limit States}}{table.4}{}}
\@writefile{toc}{\contentsline {section}{\numberline {7}Gravity}{5}{section.7}\protected@file@percent }
\@writefile{toc}{\contentsline {subsection}{\numberline {7.1}Change of occupation}{5}{subsection.7.1}\protected@file@percent }
\@writefile{toc}{\contentsline {subsection}{\numberline {7.2}Second floor headers}{5}{subsection.7.2}\protected@file@percent }
\@writefile{toc}{\contentsline {subsubsection}{\numberline {7.2.1}Headers at axes B and C}{5}{subsubsection.7.2.1}\protected@file@percent }
\@writefile{toc}{\contentsline {paragraph}{Structural design of the header.}{5}{section*.2}\protected@file@percent }
\@writefile{toc}{\contentsline {subparagraph}{Design load.}{5}{equation.7.1}\protected@file@percent }
\@writefile{toc}{\contentsline {subparagraph}{Internal forces.}{5}{section*.4}\protected@file@percent }
\@writefile{lot}{\contentsline {table}{\numberline {5}{\ignorespaces \textbf  {Combinations Serviceability Limit States}}}{6}{table.5}\protected@file@percent }
\newlabel{SLS}{{5}{6}{\textbf {Combinations Serviceability Limit States}}{table.5}{}}
\@writefile{toc}{\contentsline {subparagraph}{Structural bending check.}{6}{section*.5}\protected@file@percent }
\@writefile{toc}{\contentsline {subparagraph}{Structural shear check.}{6}{section*.6}\protected@file@percent }
\@writefile{toc}{\contentsline {subparagraph}{Bending stiffness.}{6}{section*.7}\protected@file@percent }
\@writefile{toc}{\contentsline {subsubsection}{\numberline {7.2.2}Header over the door}{6}{subsubsection.7.2.2}\protected@file@percent }
\@writefile{toc}{\contentsline {paragraph}{Structural design of the header.}{6}{section*.8}\protected@file@percent }
\@writefile{toc}{\contentsline {subparagraph}{Design load.}{6}{equation.7.7}\protected@file@percent }
\@writefile{lof}{\contentsline {figure}{\numberline {1}{\ignorespaces Headers on second floor.}}{7}{figure.1}\protected@file@percent }
\newlabel{fg_2nd_floor_headers_key_plan}{{1}{7}{Headers on second floor}{figure.1}{}}
\@writefile{toc}{\contentsline {subparagraph}{Internal forces.}{7}{section*.10}\protected@file@percent }
\@writefile{toc}{\contentsline {subparagraph}{Structural bending check.}{7}{section*.11}\protected@file@percent }
\@writefile{toc}{\contentsline {subparagraph}{Structural shear check.}{7}{section*.12}\protected@file@percent }
\@writefile{toc}{\contentsline {subparagraph}{Bending stiffness.}{7}{section*.13}\protected@file@percent }
\@writefile{toc}{\contentsline {subsubsection}{\numberline {7.2.3}Stair header over the door}{7}{subsubsection.7.2.3}\protected@file@percent }
\@writefile{toc}{\contentsline {paragraph}{Structural design of the header.}{7}{section*.14}\protected@file@percent }
\@writefile{toc}{\contentsline {subparagraph}{Design load.}{7}{section*.15}\protected@file@percent }
\@writefile{toc}{\contentsline {subparagraph}{Internal forces.}{8}{section*.16}\protected@file@percent }
\@writefile{toc}{\contentsline {subparagraph}{Structural bending check.}{8}{section*.17}\protected@file@percent }
\@writefile{toc}{\contentsline {subparagraph}{Structural shear check.}{8}{section*.18}\protected@file@percent }
\@writefile{toc}{\contentsline {subparagraph}{Bending stiffness.}{8}{section*.19}\protected@file@percent }
\@writefile{toc}{\contentsline {paragraph}{Fire design of the header.}{8}{section*.20}\protected@file@percent }
\@writefile{toc}{\contentsline {subparagraph}{Mechanical properties of the burned section.}{8}{section*.21}\protected@file@percent }
\@writefile{toc}{\contentsline {subparagraph}{Structural bending check.}{8}{section*.22}\protected@file@percent }
\@writefile{lof}{\contentsline {figure}{\numberline {2}{\ignorespaces Balcony extension.}}{9}{figure.2}\protected@file@percent }
\newlabel{fg_balcony_extension}{{2}{9}{Balcony extension}{figure.2}{}}
\@writefile{toc}{\contentsline {subparagraph}{Structural shear check.}{9}{section*.23}\protected@file@percent }
\@writefile{toc}{\contentsline {subsection}{\numberline {7.3}Balcony extension}{9}{subsection.7.3}\protected@file@percent }
\@writefile{toc}{\contentsline {subsubsection}{\numberline {7.3.1}Joists}{9}{subsubsection.7.3.1}\protected@file@percent }
\@writefile{toc}{\contentsline {paragraph}{Structural design of joist.}{9}{section*.24}\protected@file@percent }
\@writefile{toc}{\contentsline {subparagraph}{Design load.}{9}{equation.7.25}\protected@file@percent }
\@writefile{toc}{\contentsline {subparagraph}{Internal forces.}{9}{section*.26}\protected@file@percent }
\@writefile{toc}{\contentsline {subparagraph}{Structural bending check.}{9}{section*.27}\protected@file@percent }
\@writefile{toc}{\contentsline {subparagraph}{Structural shear check.}{10}{section*.28}\protected@file@percent }
\@writefile{toc}{\contentsline {subparagraph}{Bending stiffness.}{10}{section*.29}\protected@file@percent }
\@writefile{toc}{\contentsline {subsubsection}{\numberline {7.3.2}Balcony beam}{10}{subsubsection.7.3.2}\protected@file@percent }
\@writefile{toc}{\contentsline {paragraph}{Structural design of the beam.}{10}{section*.30}\protected@file@percent }
\@writefile{toc}{\contentsline {subparagraph}{Design load.}{10}{equation.7.31}\protected@file@percent }
\@writefile{toc}{\contentsline {subparagraph}{Internal forces.}{10}{section*.32}\protected@file@percent }
\@writefile{toc}{\contentsline {subparagraph}{Structural bending check.}{10}{section*.33}\protected@file@percent }
\@writefile{toc}{\contentsline {subparagraph}{Structural shear check.}{10}{section*.34}\protected@file@percent }
\@writefile{toc}{\contentsline {subparagraph}{Bending stiffness.}{10}{section*.35}\protected@file@percent }
\@writefile{toc}{\contentsline {subsubsection}{\numberline {7.3.3}Balcony posts}{10}{subsubsection.7.3.3}\protected@file@percent }
\@writefile{toc}{\contentsline {paragraph}{Structural design of the posts.}{10}{section*.36}\protected@file@percent }
\@writefile{lof}{\contentsline {figure}{\numberline {3}{\ignorespaces Foundation load chart.}}{11}{figure.3}\protected@file@percent }
\newlabel{fg_diamond_pier_load_chart}{{3}{11}{Foundation load chart}{figure.3}{}}
\@writefile{toc}{\contentsline {subsubsection}{\numberline {7.3.4}Balcony foundation}{11}{subsubsection.7.3.4}\protected@file@percent }
\@writefile{toc}{\contentsline {subsection}{\numberline {7.4}Main entrance steel beam}{11}{subsection.7.4}\protected@file@percent }
\@writefile{toc}{\contentsline {subsubsection}{\numberline {7.4.1}Structural design of the beam.}{11}{subsubsection.7.4.1}\protected@file@percent }
\@writefile{toc}{\contentsline {paragraph}{Design loads.}{11}{section*.37}\protected@file@percent }
\@writefile{lof}{\contentsline {figure}{\numberline {4}{\ignorespaces Main entrance steel beam.}}{12}{figure.4}\protected@file@percent }
\newlabel{fg_main_entrance_steel_beam}{{4}{12}{Main entrance steel beam}{figure.4}{}}
\@writefile{lof}{\contentsline {figure}{\numberline {5}{\ignorespaces Main entrance steel beam. Dead load.}}{12}{figure.5}\protected@file@percent }
\newlabel{fg_main_entrance_steel_beam_dead_load}{{5}{12}{Main entrance steel beam. Dead load}{figure.5}{}}
\@writefile{lof}{\contentsline {figure}{\numberline {6}{\ignorespaces Main entrance steel beam. Live load.}}{13}{figure.6}\protected@file@percent }
\newlabel{fg_main_entrance_steel_beam_live_load}{{6}{13}{Main entrance steel beam. Live load}{figure.6}{}}
\@writefile{lof}{\contentsline {figure}{\numberline {7}{\ignorespaces Main entrance steel beam. Maximum induced moment.}}{13}{figure.7}\protected@file@percent }
\newlabel{fg_main_entrance_steel_beam_mz}{{7}{13}{Main entrance steel beam. Maximum induced moment}{figure.7}{}}
\@writefile{lof}{\contentsline {figure}{\numberline {8}{\ignorespaces Main entrance steel beam. Maximum induced shear.}}{14}{figure.8}\protected@file@percent }
\newlabel{fg_main_entrance_steel_beam_vy}{{8}{14}{Main entrance steel beam. Maximum induced shear}{figure.8}{}}
\@writefile{toc}{\contentsline {paragraph}{Internal forces.}{14}{section*.38}\protected@file@percent }
\@writefile{toc}{\contentsline {paragraph}{Structural bending check.}{14}{section*.39}\protected@file@percent }
\@writefile{toc}{\contentsline {paragraph}{Structural shear check.}{14}{section*.40}\protected@file@percent }
\@writefile{toc}{\contentsline {paragraph}{Bending stiffness.}{14}{section*.41}\protected@file@percent }
\@writefile{toc}{\contentsline {subsection}{\numberline {7.5}Roof beam}{14}{subsection.7.5}\protected@file@percent }
\@writefile{toc}{\contentsline {subsubsection}{\numberline {7.5.1}Structural design of the beam.}{14}{subsubsection.7.5.1}\protected@file@percent }
\@writefile{toc}{\contentsline {paragraph}{Design loads.}{14}{section*.42}\protected@file@percent }
\@writefile{toc}{\contentsline {paragraph}{Internal forces.}{14}{section*.43}\protected@file@percent }
\@writefile{toc}{\contentsline {paragraph}{Structural bending check.}{14}{section*.44}\protected@file@percent }
\@writefile{lof}{\contentsline {figure}{\numberline {9}{\ignorespaces Main entrance steel beam. Bending efficiency.}}{15}{figure.9}\protected@file@percent }
\newlabel{fg_main_entrance_steel_beam_bending_efficiency}{{9}{15}{Main entrance steel beam. Bending efficiency}{figure.9}{}}
\@writefile{lof}{\contentsline {figure}{\numberline {10}{\ignorespaces Main entrance steel beam. Shear efficiency.}}{15}{figure.10}\protected@file@percent }
\newlabel{fg_main_entrance_steel_beam_shear_efficiency}{{10}{15}{Main entrance steel beam. Shear efficiency}{figure.10}{}}
\@writefile{lof}{\contentsline {figure}{\numberline {11}{\ignorespaces Beam supporting the roof.}}{16}{figure.11}\protected@file@percent }
\newlabel{fg_roof_beam}{{11}{16}{Beam supporting the roof}{figure.11}{}}
\@writefile{lof}{\contentsline {figure}{\numberline {12}{\ignorespaces Main entrance steel beam. Dead load.}}{16}{figure.12}\protected@file@percent }
\newlabel{fg_roof_beam_dead_load}{{12}{16}{Main entrance steel beam. Dead load}{figure.12}{}}
\@writefile{lof}{\contentsline {figure}{\numberline {13}{\ignorespaces Main entrance steel beam. Live load.}}{17}{figure.13}\protected@file@percent }
\newlabel{fg_roof_beam_live_load}{{13}{17}{Main entrance steel beam. Live load}{figure.13}{}}
\@writefile{lof}{\contentsline {figure}{\numberline {14}{\ignorespaces Main entrance steel beam. Maximum induced moment.}}{17}{figure.14}\protected@file@percent }
\newlabel{fg_roof_beam_mz}{{14}{17}{Main entrance steel beam. Maximum induced moment}{figure.14}{}}
\@writefile{lof}{\contentsline {figure}{\numberline {15}{\ignorespaces Main entrance steel beam. Maximum induced shear.}}{18}{figure.15}\protected@file@percent }
\newlabel{fg_roof_beam_vy}{{15}{18}{Main entrance steel beam. Maximum induced shear}{figure.15}{}}
\@writefile{lof}{\contentsline {figure}{\numberline {16}{\ignorespaces Main entrance steel beam. Bending efficiency.}}{18}{figure.16}\protected@file@percent }
\newlabel{fg_roof_beam_bending_efficiency}{{16}{18}{Main entrance steel beam. Bending efficiency}{figure.16}{}}
\@writefile{lof}{\contentsline {figure}{\numberline {17}{\ignorespaces Main entrance steel beam. Shear efficiency.}}{19}{figure.17}\protected@file@percent }
\newlabel{fg_roof_beam_shear_efficiency}{{17}{19}{Main entrance steel beam. Shear efficiency}{figure.17}{}}
\@writefile{lof}{\contentsline {figure}{\numberline {18}{\ignorespaces Demolition of bearing wall on the second floor.}}{19}{figure.18}\protected@file@percent }
\newlabel{fg_second_floor_wall_demolition}{{18}{19}{Demolition of bearing wall on the second floor}{figure.18}{}}
\@writefile{toc}{\contentsline {paragraph}{Structural shear check.}{19}{section*.45}\protected@file@percent }
\@writefile{toc}{\contentsline {paragraph}{Bending stiffness.}{19}{section*.46}\protected@file@percent }
\@writefile{toc}{\contentsline {section}{\numberline {8}Lateral. Diaphragms/Shear walls}{19}{section.8}\protected@file@percent }
\@writefile{lof}{\contentsline {figure}{\numberline {19}{\ignorespaces Braced frame replacing the demolished wall.}}{20}{figure.19}\protected@file@percent }
\newlabel{fg_main_entrance_braced_frame}{{19}{20}{Braced frame replacing the demolished wall}{figure.19}{}}
\newlabel{LastPage}{{}{21}{}{page.21}{}}
\xdef\lastpage@lastpage{21}
\xdef\lastpage@lastpageHy{21}
